youtube-forte-example/traces.vcd
$date
     Feb 14, 2020       19:21:16
$end

$version
 SystemC 2.3.2-Accellera --- Feb 13 2020 11:02:19
$end

$timescale
     1 ps
$end

$scope module SystemC $end
$var wire    1  aaaaa  clk       $end
$var wire    1  aaaab  rst       $end
$var wire    1  aaaac  inp_sig_vld       $end
$var wire    1  aaaad  inp_sig_rdy       $end
$var wire   16  aaaae  inp_sig [15:0]  $end
$var wire    1  aaaaf  outp_vld       $end
$var wire    1  aaaag  outp_rdy       $end
$var wire   16  aaaah  outp_sig [15:0]  $end
$upscope $end
$enddefinitions  $end

$comment
All initial values are dumped below at time 0 sec = 0 timescale units.
$end

$dumpvars
1aaaaa
1aaaab
0aaaac
0aaaad
b0 aaaae
0aaaaf
1aaaag
b0 aaaah
$end

#5000
0aaaaa

#10000
1aaaaa
0aaaab

#15000
0aaaaa

#20000
1aaaaa
1aaaac
1aaaad

#25000
0aaaaa

#30000
1aaaaa
0aaaad
1aaaaf

#35000
0aaaaa

#40000
1aaaaa
1aaaad
0aaaaf

#45000
0aaaaa

#50000
1aaaaa
0aaaad
1aaaaf

#55000
0aaaaa

#60000
1aaaaa
1aaaad
0aaaaf

#65000
0aaaaa

#70000
1aaaaa
0aaaad
1aaaaf

#75000
0aaaaa

#80000
1aaaaa
1aaaad
0aaaaf

#85000
0aaaaa

#90000
1aaaaa
0aaaad
1aaaaf

#95000
0aaaaa

#100000
1aaaaa
1aaaad
0aaaaf

#105000
0aaaaa

#110000
1aaaaa
0aaaad
1aaaaf

#115000
0aaaaa

#120000
1aaaaa
1aaaad
0aaaaf

#125000
0aaaaa

#130000
1aaaaa
0aaaad
1aaaaf

#135000
0aaaaa

#140000
1aaaaa
1aaaad
0aaaaf

#145000
0aaaaa

#150000
1aaaaa
0aaaad
1aaaaf

#155000
0aaaaa

#160000
1aaaaa
1aaaad
0aaaaf

#165000
0aaaaa

#170000
1aaaaa
0aaaad
1aaaaf

#175000
0aaaaa

#180000
1aaaaa
1aaaad
0aaaaf

#185000
0aaaaa

#190000
1aaaaa
0aaaad
1aaaaf

#195000
0aaaaa

#200000
1aaaaa
1aaaad
0aaaaf

#205000
0aaaaa

#210000
1aaaaa
0aaaad
1aaaaf

#215000
0aaaaa

#220000
1aaaaa
1aaaad
0aaaaf

#225000
0aaaaa

#230000
1aaaaa
0aaaad
1aaaaf

#235000
0aaaaa

#240000
1aaaaa
1aaaad
0aaaaf

#245000
0aaaaa

#250000
1aaaaa
0aaaad
1aaaaf

#255000
0aaaaa

#260000
1aaaaa
1aaaad
0aaaaf

#265000
0aaaaa

#270000
1aaaaa
0aaaad
1aaaaf

#275000
0aaaaa

#280000
1aaaaa
1aaaad
0aaaaf

#285000
0aaaaa

#290000
1aaaaa
0aaaad
1aaaaf

#295000
0aaaaa

#300000
1aaaaa
1aaaad
0aaaaf

#305000
0aaaaa

#310000
1aaaaa
0aaaad
1aaaaf

#315000
0aaaaa

#320000
1aaaaa
1aaaad
0aaaaf

#325000
0aaaaa

#330000
1aaaaa
0aaaad
1aaaaf

#335000
0aaaaa

#340000
1aaaaa
1aaaad
0aaaaf

#345000
0aaaaa

#350000
1aaaaa
0aaaad
1aaaaf

#355000
0aaaaa

#360000
1aaaaa
1aaaad
0aaaaf

#365000
0aaaaa

#370000
1aaaaa
0aaaad
1aaaaf

#375000
0aaaaa

#380000
1aaaaa
1aaaad
0aaaaf

#385000
0aaaaa

#390000
1aaaaa
0aaaad
1aaaaf

#395000
0aaaaa

#400000
1aaaaa
1aaaad
0aaaaf

#405000
0aaaaa

#410000
1aaaaa
0aaaad
1aaaaf

#415000
0aaaaa

#420000
1aaaaa
1aaaad
0aaaaf

#425000
0aaaaa

#430000
1aaaaa
0aaaad
1aaaaf

#435000
0aaaaa

#440000
1aaaaa
1aaaad
0aaaaf

#445000
0aaaaa

#450000
1aaaaa
0aaaad
1aaaaf

#455000
0aaaaa

#460000
1aaaaa
1aaaad
0aaaaf

#465000
0aaaaa

#470000
1aaaaa
0aaaad
1aaaaf

#475000
0aaaaa

#480000
1aaaaa
1aaaad
0aaaaf

#485000
0aaaaa

#490000
1aaaaa
0aaaad
b100000000 aaaae
1aaaaf

#495000
0aaaaa

#500000
1aaaaa
1aaaad
0aaaaf

#505000
0aaaaa

#510000
1aaaaa
0aaaad
1aaaaf
b1001000000000 aaaah

#515000
0aaaaa

#520000
1aaaaa
1aaaad
0aaaaf

#525000
0aaaaa

#530000
1aaaaa
0aaaad
1aaaaf
b101111100000000 aaaah

#535000
0aaaaa

#540000
1aaaaa
1aaaad
0aaaaf

#545000
0aaaaa

#550000
1aaaaa
0aaaad
1aaaaf
b1100101000000000 aaaah

#555000
0aaaaa

#560000
1aaaaa
1aaaad
0aaaaf

#565000
0aaaaa

#570000
1aaaaa
0aaaad
1aaaaf
b1011100000000 aaaah

#575000
0aaaaa

#580000
1aaaaa
1aaaad
0aaaaf

#585000
0aaaaa

#590000
1aaaaa
0aaaad
b0 aaaae
1aaaaf
b10100100000000 aaaah

#595000
0aaaaa

#600000
1aaaaa
1aaaad
0aaaaf

#605000
0aaaaa

#610000
1aaaaa
0aaaad
1aaaaf
b1011100000000 aaaah

#615000
0aaaaa

#620000
1aaaaa
1aaaad
0aaaaf

#625000
0aaaaa

#630000
1aaaaa
0aaaad
1aaaaf
b1100101000000000 aaaah

#635000
0aaaaa

#640000
1aaaaa
1aaaad
0aaaaf

#645000
0aaaaa

#650000
1aaaaa
0aaaad
1aaaaf
b101111100000000 aaaah

#655000
0aaaaa

#660000
1aaaaa
1aaaad
0aaaaf

#665000
0aaaaa

#670000
1aaaaa
0aaaad
1aaaaf
b1001000000000 aaaah

#675000
0aaaaa

#680000
1aaaaa
1aaaad
0aaaaf

#685000
0aaaaa

#690000
1aaaaa
0aaaad
1aaaaf
b0 aaaah

#695000
0aaaaa

#700000
1aaaaa
1aaaad
0aaaaf

#705000
0aaaaa

#710000
1aaaaa
0aaaad
1aaaaf

#715000
0aaaaa

#720000
1aaaaa
1aaaad
0aaaaf

#725000
0aaaaa

#730000
1aaaaa
0aaaad
1aaaaf

#735000
0aaaaa

#740000
1aaaaa
1aaaad
0aaaaf

#745000
0aaaaa

#750000
1aaaaa
0aaaad
1aaaaf

#755000
0aaaaa

#760000
1aaaaa
1aaaad
0aaaaf

#765000
0aaaaa

#770000
1aaaaa
0aaaad
1aaaaf

#775000
0aaaaa

#780000
1aaaaa
1aaaad
0aaaaf

#785000
0aaaaa

#790000
1aaaaa
0aaaad
1aaaaf

#795000
0aaaaa

#800000
1aaaaa
1aaaad
0aaaaf

#805000
0aaaaa

#810000
1aaaaa
0aaaad
1aaaaf

#815000
0aaaaa

#820000
1aaaaa
1aaaad
0aaaaf

#825000
0aaaaa

#830000
1aaaaa
0aaaad
1aaaaf

#835000
0aaaaa

#840000
1aaaaa
1aaaad
0aaaaf

#845000
0aaaaa

#850000
1aaaaa
0aaaad
1aaaaf

#855000
0aaaaa

#860000
1aaaaa
1aaaad
0aaaaf

#865000
0aaaaa

#870000
1aaaaa
0aaaad
1aaaaf

#875000
0aaaaa

#880000
1aaaaa
1aaaad
0aaaaf

#885000
0aaaaa

#890000
1aaaaa
0aaaad
1aaaaf

#895000
0aaaaa

#900000
1aaaaa
1aaaad
0aaaaf

#905000
0aaaaa

#910000
1aaaaa
0aaaad
1aaaaf

#915000
0aaaaa

#920000
1aaaaa
1aaaad
0aaaaf

#925000
0aaaaa

#930000
1aaaaa
0aaaad
1aaaaf

#935000
0aaaaa

#940000
1aaaaa
1aaaad
0aaaaf

#945000
0aaaaa

#950000
1aaaaa
0aaaad
1aaaaf

#955000
0aaaaa

#960000
1aaaaa
1aaaad
0aaaaf

#965000
0aaaaa

#970000
1aaaaa
0aaaad
1aaaaf

#975000
0aaaaa

#980000
1aaaaa
1aaaad
0aaaaf

#985000
0aaaaa

#990000
1aaaaa
0aaaad
1aaaaf

#995000
0aaaaa

#1000000
1aaaaa
1aaaad
0aaaaf

#1005000
0aaaaa

#1010000
1aaaaa
0aaaad
1aaaaf

#1015000
0aaaaa

#1020000
1aaaaa
1aaaad
0aaaaf

#1025000
0aaaaa

#1030000
1aaaaa
0aaaad
1aaaaf

#1035000
0aaaaa

#1040000
1aaaaa
1aaaad
0aaaaf

#1045000
0aaaaa

#1050000
1aaaaa
0aaaad
1aaaaf

#1055000
0aaaaa

#1060000
1aaaaa
1aaaad
0aaaaf

#1065000
0aaaaa

#1070000
1aaaaa
0aaaad
1aaaaf

#1075000
0aaaaa

#1080000
1aaaaa
1aaaad
0aaaaf

#1085000
0aaaaa

#1090000
1aaaaa
0aaaad
1aaaaf

#1095000
0aaaaa

#1100000
1aaaaa
1aaaad
0aaaaf

#1105000
0aaaaa

#1110000
1aaaaa
0aaaad
1aaaaf

#1115000
0aaaaa

#1120000
1aaaaa
1aaaad
0aaaaf

#1125000
0aaaaa

#1130000
1aaaaa
0aaaad
1aaaaf

#1135000
0aaaaa

#1140000
1aaaaa
1aaaad
0aaaaf

#1145000
0aaaaa

#1150000
1aaaaa
0aaaad
1aaaaf

#1155000
0aaaaa

#1160000
1aaaaa
1aaaad
0aaaaf

#1165000
0aaaaa

#1170000
1aaaaa
0aaaad
1aaaaf

#1175000
0aaaaa

#1180000
1aaaaa
1aaaad
0aaaaf

#1185000
0aaaaa

#1190000
1aaaaa
0aaaad
1aaaaf

#1195000
0aaaaa

#1200000
1aaaaa
1aaaad
0aaaaf

#1205000
0aaaaa

#1210000
1aaaaa
0aaaad
1aaaaf

#1215000
0aaaaa

#1220000
1aaaaa
1aaaad
0aaaaf

#1225000
0aaaaa

#1230000
1aaaaa
0aaaad
1aaaaf

#1235000
0aaaaa

#1240000
1aaaaa
1aaaad
0aaaaf

#1245000
0aaaaa

#1250000
1aaaaa
0aaaad
1aaaaf

#1255000
0aaaaa

#1260000
1aaaaa
1aaaad
0aaaaf

#1265000
0aaaaa

#1270000
1aaaaa
0aaaad
1aaaaf

#1275000
0aaaaa

#1280000
1aaaaa
1aaaad
0aaaaf

#1285000
0aaaaa

#1290000
1aaaaa
0aaaac
0aaaad
1aaaaf

