youtube-forte-example-threads/traces.vcd
$date
     Feb 14, 2020       19:21:30
$end

$version
 SystemC 2.3.2-Accellera --- Feb 13 2020 11:02:19
$end

$timescale
     1 ps
$end

$scope module SystemC $end
$var wire    1  aaaaa  clk       $end
$var wire    1  aaaab  rst       $end
$var wire    1  aaaac  inp_sig_vld       $end
$var wire    1  aaaad  inp_sig_rdy       $end
$var wire   16  aaaae  inp_sig [15:0]  $end
$var wire    1  aaaaf  outp_vld       $end
$var wire    1  aaaag  outp_rdy       $end
$var wire   16  aaaah  outp_sig [15:0]  $end
$upscope $end
$enddefinitions  $end

$comment
All initial values are dumped below at time 0 sec = 0 timescale units.
$end

$dumpvars
1aaaaa
0aaaab
0aaaac
0aaaad
b0 aaaae
0aaaaf
1aaaag
b0 aaaah
$end

#5000
0aaaaa

#10000
1aaaaa
1aaaac
1aaaad

#15000
0aaaaa

#20000
1aaaaa
0aaaad
1aaaaf

#25000
0aaaaa

#30000
1aaaaa
1aaaad
0aaaaf

#35000
0aaaaa

#40000
1aaaaa
0aaaad
1aaaaf

#45000
0aaaaa

#50000
1aaaaa
1aaaad
0aaaaf

#55000
0aaaaa

#60000
1aaaaa
0aaaad
1aaaaf

#65000
0aaaaa

#70000
1aaaaa
1aaaad
0aaaaf

#75000
0aaaaa

#80000
1aaaaa
0aaaad
1aaaaf

#85000
0aaaaa

#90000
1aaaaa
1aaaad
0aaaaf

#95000
0aaaaa

#100000
1aaaaa
0aaaad
1aaaaf

#105000
0aaaaa

#110000
1aaaaa
1aaaad
0aaaaf

#115000
0aaaaa

#120000
1aaaaa
0aaaad
1aaaaf

#125000
0aaaaa

#130000
1aaaaa
1aaaad
0aaaaf

#135000
0aaaaa

#140000
1aaaaa
0aaaad
1aaaaf

#145000
0aaaaa

#150000
1aaaaa
1aaaad
0aaaaf

#155000
0aaaaa

#160000
1aaaaa
0aaaad
1aaaaf

#165000
0aaaaa

#170000
1aaaaa
1aaaad
0aaaaf

#175000
0aaaaa

#180000
1aaaaa
0aaaad
1aaaaf

#185000
0aaaaa

#190000
1aaaaa
1aaaad
0aaaaf

#195000
0aaaaa

#200000
1aaaaa
0aaaad
1aaaaf

#205000
0aaaaa

#210000
1aaaaa
1aaaad
0aaaaf

#215000
0aaaaa

#220000
1aaaaa
0aaaad
1aaaaf

#225000
0aaaaa

#230000
1aaaaa
1aaaad
0aaaaf

#235000
0aaaaa

#240000
1aaaaa
0aaaad
1aaaaf

#245000
0aaaaa

#250000
1aaaaa
1aaaad
0aaaaf

#255000
0aaaaa

#260000
1aaaaa
0aaaad
1aaaaf

#265000
0aaaaa

#270000
1aaaaa
1aaaad
0aaaaf

#275000
0aaaaa

#280000
1aaaaa
0aaaad
1aaaaf

#285000
0aaaaa

#290000
1aaaaa
1aaaad
0aaaaf

#295000
0aaaaa

#300000
1aaaaa
0aaaad
1aaaaf

#305000
0aaaaa

#310000
1aaaaa
1aaaad
0aaaaf

#315000
0aaaaa

#320000
1aaaaa
0aaaad
1aaaaf

#325000
0aaaaa

#330000
1aaaaa
1aaaad
0aaaaf

#335000
0aaaaa

#340000
1aaaaa
0aaaad
1aaaaf

#345000
0aaaaa

#350000
1aaaaa
1aaaad
0aaaaf

#355000
0aaaaa

#360000
1aaaaa
0aaaad
1aaaaf

#365000
0aaaaa

#370000
1aaaaa
1aaaad
0aaaaf

#375000
0aaaaa

#380000
1aaaaa
0aaaad
1aaaaf

#385000
0aaaaa

#390000
1aaaaa
1aaaad
0aaaaf

#395000
0aaaaa

#400000
1aaaaa
0aaaad
1aaaaf

#405000
0aaaaa

#410000
1aaaaa
1aaaad
0aaaaf

#415000
0aaaaa

#420000
1aaaaa
0aaaad
1aaaaf

#425000
0aaaaa

#430000
1aaaaa
1aaaad
0aaaaf

#435000
0aaaaa

#440000
1aaaaa
0aaaad
1aaaaf

#445000
0aaaaa

#450000
1aaaaa
1aaaad
0aaaaf

#455000
0aaaaa

#460000
1aaaaa
0aaaad
1aaaaf

#465000
0aaaaa

#470000
1aaaaa
1aaaad
0aaaaf

#475000
0aaaaa

#480000
1aaaaa
0aaaad
b100000000 aaaae
1aaaaf

#485000
0aaaaa

#490000
1aaaaa
1aaaad
0aaaaf

#495000
0aaaaa

#500000
1aaaaa
0aaaad
1aaaaf
b1001000000000 aaaah

#505000
0aaaaa

#510000
1aaaaa
1aaaad
0aaaaf

#515000
0aaaaa

#520000
1aaaaa
0aaaad
1aaaaf
b101111100000000 aaaah

#525000
0aaaaa

#530000
1aaaaa
1aaaad
0aaaaf

#535000
0aaaaa

#540000
1aaaaa
0aaaad
1aaaaf
b1100101000000000 aaaah

#545000
0aaaaa

#550000
1aaaaa
1aaaad
0aaaaf

#555000
0aaaaa

#560000
1aaaaa
0aaaad
1aaaaf
b1011100000000 aaaah

#565000
0aaaaa

#570000
1aaaaa
1aaaad
0aaaaf

#575000
0aaaaa

#580000
1aaaaa
0aaaad
b0 aaaae
1aaaaf
b10100100000000 aaaah

#585000
0aaaaa

#590000
1aaaaa
1aaaad
0aaaaf

#595000
0aaaaa

#600000
1aaaaa
0aaaad
1aaaaf
b1011100000000 aaaah

#605000
0aaaaa

#610000
1aaaaa
1aaaad
0aaaaf

#615000
0aaaaa

#620000
1aaaaa
0aaaad
1aaaaf
b1100101000000000 aaaah

#625000
0aaaaa

#630000
1aaaaa
1aaaad
0aaaaf

#635000
0aaaaa

#640000
1aaaaa
0aaaad
1aaaaf
b101111100000000 aaaah

#645000
0aaaaa

#650000
1aaaaa
1aaaad
0aaaaf

#655000
0aaaaa

#660000
1aaaaa
0aaaad
1aaaaf
b1001000000000 aaaah

#665000
0aaaaa

#670000
1aaaaa
1aaaad
0aaaaf

#675000
0aaaaa

#680000
1aaaaa
0aaaad
1aaaaf
b0 aaaah

#685000
0aaaaa

#690000
1aaaaa
1aaaad
0aaaaf

#695000
0aaaaa

#700000
1aaaaa
0aaaad
1aaaaf

#705000
0aaaaa

#710000
1aaaaa
1aaaad
0aaaaf

#715000
0aaaaa

#720000
1aaaaa
0aaaad
1aaaaf

#725000
0aaaaa

#730000
1aaaaa
1aaaad
0aaaaf

#735000
0aaaaa

#740000
1aaaaa
0aaaad
1aaaaf

#745000
0aaaaa

#750000
1aaaaa
1aaaad
0aaaaf

#755000
0aaaaa

#760000
1aaaaa
0aaaad
1aaaaf

#765000
0aaaaa

#770000
1aaaaa
1aaaad
0aaaaf

#775000
0aaaaa

#780000
1aaaaa
0aaaad
1aaaaf

#785000
0aaaaa

#790000
1aaaaa
1aaaad
0aaaaf

#795000
0aaaaa

#800000
1aaaaa
0aaaad
1aaaaf

#805000
0aaaaa

#810000
1aaaaa
1aaaad
0aaaaf

#815000
0aaaaa

#820000
1aaaaa
0aaaad
1aaaaf

#825000
0aaaaa

#830000
1aaaaa
1aaaad
0aaaaf

#835000
0aaaaa

#840000
1aaaaa
0aaaad
1aaaaf

#845000
0aaaaa

#850000
1aaaaa
1aaaad
0aaaaf

#855000
0aaaaa

#860000
1aaaaa
0aaaad
1aaaaf

#865000
0aaaaa

#870000
1aaaaa
1aaaad
0aaaaf

#875000
0aaaaa

#880000
1aaaaa
0aaaad
1aaaaf

#885000
0aaaaa

#890000
1aaaaa
1aaaad
0aaaaf

#895000
0aaaaa

#900000
1aaaaa
0aaaad
1aaaaf

#905000
0aaaaa

#910000
1aaaaa
1aaaad
0aaaaf

#915000
0aaaaa

#920000
1aaaaa
0aaaad
1aaaaf

#925000
0aaaaa

#930000
1aaaaa
1aaaad
0aaaaf

#935000
0aaaaa

#940000
1aaaaa
0aaaad
1aaaaf

#945000
0aaaaa

#950000
1aaaaa
1aaaad
0aaaaf

#955000
0aaaaa

#960000
1aaaaa
0aaaad
1aaaaf

#965000
0aaaaa

#970000
1aaaaa
1aaaad
0aaaaf

#975000
0aaaaa

#980000
1aaaaa
0aaaad
1aaaaf

#985000
0aaaaa

#990000
1aaaaa
1aaaad
0aaaaf

